<?xml version="1.0" encoding="utf-8"?>
<!-- Generator: Adobe Illustrator 16.0.0, SVG Export Plug-In . SVG Version: 6.00 Build 0)  -->
<!DOCTYPE svg PUBLIC "-//W3C//DTD SVG 1.1//EN" "http://www.w3.org/Graphics/SVG/1.1/DTD/svg11.dtd">
<svg version="1.1" id="Ebene_1" xmlns="http://www.w3.org/2000/svg" xmlns:xlink="http://www.w3.org/1999/xlink" x="0px" y="0px"
	 width="300px" height="300px" viewBox="0 0 300 300" enable-background="new 0 0 300 300" xml:space="preserve">
<path d="M266.871,148.918c0-57.197-41.096-104.766-95.364-114.869v109.054h46.985l-68.5,101.546L81.491,143.103h46.985V34.049
	C74.208,44.152,33.112,91.721,33.112,148.918c0,64.551,52.329,116.88,116.879,116.88
	C214.542,265.798,266.871,213.469,266.871,148.918"/>
</svg>
